%YAML 1.1
%TAG !u! tag:unity3d.com,2011:
--- !u!114 &11400000
MonoBehaviour:
  m_ObjectHideFlags: 0
  m_CorrespondingSourceObject: {fileID: 0}
  m_PrefabInstance: {fileID: 0}
  m_PrefabAsset: {fileID: 0}
  m_GameObject: {fileID: 0}
  m_Enabled: 1
  m_EditorHideFlags: 0
  m_Script: {fileID: 11500000, guid: 5effe83dffa1f4cf887d7ec19fc80d53, type: 3}
  m_Name: Game Info
  m_EditorClassIdentifier: 
  allCardSprites:
  - {fileID: 21300000, guid: 3a9508de66cb5bf438800dee61e914d3, type: 3}
  - {fileID: 21300000, guid: 06bdaecb1de497d408a7cac4df413f2f, type: 3}
  - {fileID: 21300000, guid: 8c455c92e4bcb04489d55a8e05fb2231, type: 3}
  - {fileID: 21300000, guid: c8d98ac778ed61846842a1f15d6ed470, type: 3}
  - {fileID: 21300000, guid: 3853dd97490454b40b163f848f394989, type: 3}
  - {fileID: 21300000, guid: f2c4242755ea4ad44a0ebbd092f810ac, type: 3}
  - {fileID: 21300000, guid: 9a2edc238eb19ec40bb4688829b93498, type: 3}
  - {fileID: 21300000, guid: 55e14eaf833bf3f468f393351ea7b373, type: 3}
  - {fileID: 21300000, guid: 99b97e0c7eb6c774692317f2b5de6511, type: 3}
  - {fileID: 21300000, guid: 14c4efd6d1961b34c9e93a61c4821f00, type: 3}
  - {fileID: 21300000, guid: 906c064b22e5e4d4d8406aff66071086, type: 3}
  - {fileID: 21300000, guid: 57eaa9809c2b211418bd3f1615de5abe, type: 3}
  - {fileID: 21300000, guid: 8428516a813bb2c4ebbc533c241949a6, type: 3}
  - {fileID: 21300000, guid: 8edfce9f2937bf84493028973ea17057, type: 3}
  - {fileID: 21300000, guid: 3db1449d440722a47b7b1ead14d035e0, type: 3}
  GamePlayTime: 50
  ComboResetTimer: 3
  ScoreMultiplier: 10
