%YAML 1.1
%TAG !u! tag:unity3d.com,2011:
--- !u!1045 &1
EditorBuildSettings:
  m_ObjectHideFlags: 0
  serializedVersion: 2
  m_Scenes:
  - enabled: 1
    path: Assets/_Project/Scenes/SplashScreen.unity
    guid: 9fc0d4010bbf28b4594072e72b8655ab
  - enabled: 1
    path: Assets/_Project/Scenes/MainMenu.unity
    guid: b7d6108d262b74a8aa42271434569f5b
  - enabled: 1
    path: Assets/_Project/Scenes/GamePlay.unity
    guid: 0eef2bd1ea2f24a9e88260bf0b193db1
  m_configObjects: {}
